4   92.5   4760  95.4545  92.5
4   87.5   1232  95.4545  87.5
4   97.5   2352  95.4545  97.5
4   95   2800  95.4545  95
4   97.5   1680  95.4545  97.5
4   97.5   1512  95.4545  97.5
4   97.5   2452  95.4545  97.5
4   97.5   5320  95.4545  97.5
4   97.5   1568  96.3636  97.5
4   97.5   1568  95.4545  97.5
4   97.5   1176  95.4545  97.5
4   97.5   1288  95.4545  97.5
4   97.5   1390  95.4545  97.5
4   97.5   1904  95.4545  97.5
4   87.5   1512  95.4545  87.5
4   95   672  95.4545  95
4   97.5   3976  95.4545  97.5
4   87.5   1164  95.4545  87.5
4   97.5   3192  95.4545  97.5
4   97.5   2576  95.4545  97.5
6   97.5   2788  95.4545  97.5
6   95   4148  95.4545  95
6   97.5   3008  95.4545  97.5
6   95   2176  95.4545  95
6   87.5   2108  95.4545  87.5
6   97.5   4012  95.4545  97.5
6   90   7888  95.4545  90
6   97.5   1292  95.4545  97.5
6   97.5   1564  95.4545  97.5
6   87.5   1972  95.4545  87.5
6   97.5   2584  96.3636  97.5
6   92.5   8296  95.4545  92.5
6   97.5   5236  95.4545  97.5
6   97.5   1700  95.4545  97.5
6   97.5   2788  95.4545  97.5
6   95   5304  96.3636  95
6   87.5   3400  95.4545  87.5
6   97.5   4488  95.4545  97.5
6   97.5   3604  95.4545  97.5
6   97.5   4012  95.4545  97.5
8   87.5   1680  95.4545  87.5
8   97.5   6960  95.4545  97.5
8   97.5   2990  95.4545  97.5
8   87.5   4400  95.4545  87.5
8   97.5   2000  95.4545  97.5
8   97.5   1760  95.4545  97.5
8   87.5   2640  95.4545  87.5
8   87.5   4400  95.4545  87.5
8   95   2560  95.4545  95
8   95   3440  95.4545  95
8   97.5   6240  95.4545  97.5
8   92.5   13680  95.4545  92.5
8   97.5   6480  95.4545  97.5
8   97.5   2720  95.4545  97.5
8   92.5   3600  95.4545  92.5
8   97.5   2880  95.4545  97.5
8   97.5   3440  95.4545  97.5
8   92.5   4400  95.4545  92.5
8   97.5   2720  95.4545  97.5
8   87.5   3360  95.4545  87.5
10   97.5   3220  95.4545  97.5
10   95   4968  95.4545  95
10   90   2760  95.4545  90
10   87.5   4600  95.4545  87.5
10   97.5   2300  95.4545  97.5
10   87.5   2668  95.4545  87.5
10   95   3680  95.4545  95
10   95   5060  95.4545  95
10   87.5   3376  95.4545  87.5
10   97.5   3456  95.4545  97.5
10   92.5   3568  95.4545  92.5
10   97.5   3404  95.4545  97.5
10   97.5   3864  95.4545  97.5
10   97.5   3220  95.4545  97.5
10   97.5   2116  95.4545  97.5
10   97.5   4102  95.4545  97.5
10   97.5   6072  95.4545  97.5
10   95   2576  95.4545  95
10   95   4692  95.4545  95
10   97.5   2944  95.4545  97.5
12   87.5   4264  95.4545  87.5
12   95   5408  95.4545  95
12   97.5   4680  95.4545  97.5
12   97.5   2464  95.4545  97.5
12   97.5   9360  95.4545  97.5
12   95   6968  95.4545  95
12   97.5   4472  96.3636  97.5
12   97.5   3466  95.4545  97.5
12   97.5   3946  95.4545  97.5
12   97.5   3640  95.4545  97.5
12   97.5   5096  95.4545  97.5
12   97.5   3120  95.4545  97.5
12   85   2080  95.4545  85
12   97.5   2912  95.4545  97.5
12   97.5   3672  95.4545  97.5
12   92.5   208  95.4545  92.5
12   95   6760  95.4545  95
12   87.5   2912  95.4545  87.5
12   97.5   2914  97.2727  97.5
12   97.5   9048  95.4545  97.5
